<svg width="24" height="24" viewBox="0 0 24 24" fill="none" xmlns="http://www.w3.org/2000/svg">
    <path fill-rule="evenodd" clip-rule="evenodd"
          d="M23.9356 22.6176C23.9356 23.3456 23.3454 23.9357 22.6176 23.9357H16.5321V14.6876H19.6362L20.101 11.0834H16.5321V8.78238C16.5321 7.73889 16.8218 7.02779 18.3182 7.02779L20.2267 7.02695V3.80335C19.8966 3.75943 18.7637 3.6613 17.4456 3.6613C14.694 3.6613 12.8101 5.34093 12.8101 8.42544V11.0834H9.698V14.6876H12.8101V23.9357H1.3725C0.644343 23.9357 0.0544434 23.3455 0.0544434 22.6176V1.3725C0.0544434 0.644436 0.644436 0.0544434 1.3725 0.0544434H22.6176C23.3455 0.0544434 23.9356 0.644436 23.9356 1.3725V22.6176Z"
          fill="#C2C2C2"/>
</svg>
