<svg width="24" height="24" viewBox="0 0 24 24" fill="none" xmlns="http://www.w3.org/2000/svg">
    <path fill-rule="evenodd" clip-rule="evenodd"
          d="M7.08002 0.140359C8.35324 0.081376 8.76002 0.0671387 12 0.0671387C15.24 0.0671387 15.6468 0.081376 16.92 0.140359C17.9098 0.159518 18.8891 0.346582 19.8163 0.693579C20.6124 0.993428 21.3336 1.46333 21.9295 2.07053C22.5367 2.66642 23.0066 3.38759 23.3065 4.18375C23.6535 5.1109 23.8405 6.09024 23.8597 7.08002C23.9187 8.35324 23.9329 8.76002 23.9329 12C23.9329 15.24 23.9187 15.6468 23.8597 16.92C23.8405 17.9098 23.6535 18.8891 23.3065 19.8163C22.6865 21.4193 21.4193 22.6865 19.8163 23.3065C18.8891 23.6535 17.9098 23.8405 16.92 23.8597C15.6468 23.9187 15.24 23.9329 12 23.9329C8.76002 23.9329 8.35324 23.9187 7.08002 23.8597C6.09024 23.8405 5.1109 23.6535 4.18375 23.3065C3.38759 23.0066 2.66642 22.5367 2.07053 21.9295C1.46333 21.3336 0.993428 20.6124 0.693579 19.8163C0.346582 18.8891 0.159518 17.9098 0.140359 16.92C0.081376 15.6468 0.0671387 15.24 0.0671387 12C0.0671387 8.76002 0.081376 8.35324 0.140359 7.08002C0.159518 6.09024 0.346582 5.1109 0.693579 4.18375C0.993428 3.38759 1.46333 2.66642 2.07053 2.07053C2.66642 1.46333 3.38759 0.993428 4.18375 0.693579C5.1109 0.346582 6.09024 0.159518 7.08002 0.140359ZM15.4109 3.779C14.5282 3.73833 14.2454 3.72816 12 3.72816H12.0041C9.7668 3.72816 9.47595 3.73833 8.59324 3.779C7.90715 3.79253 7.22834 3.92252 6.58578 4.16341C5.47371 4.59228 4.59415 5.47037 4.16341 6.58171C3.92252 7.22427 3.79253 7.90308 3.779 8.58917C3.73833 9.47188 3.72816 9.7546 3.72816 12C3.72816 14.2454 3.73833 14.5282 3.779 15.4109C3.79253 16.097 3.92252 16.7758 4.16341 17.4183C4.59323 18.5289 5.47119 19.4068 6.58171 19.8366C7.22427 20.0775 7.90308 20.2075 8.58917 20.221C9.47188 20.2617 9.7546 20.2719 12 20.2719H12.0003C14.2455 20.2719 14.5282 20.2719 15.4109 20.221C16.097 20.2075 16.7758 20.0775 17.4183 19.8366C18.5289 19.4068 19.4068 18.5289 19.8366 17.4183C20.0775 16.7758 20.2075 16.097 20.221 15.4109C20.2617 14.5282 20.2719 14.2454 20.2719 12V11.9998C20.2719 9.75457 20.2719 9.47185 20.221 8.58917C20.2075 7.90308 20.0775 7.22427 19.8366 6.58171C19.4068 5.47119 18.5289 4.59323 17.4183 4.16341C16.7758 3.92252 16.097 3.79253 15.4109 3.779ZM8.65629 5.25765C9.53087 5.21697 9.79324 5.20883 12.0041 5.20883C14.2112 5.20883 14.4738 5.20886 15.3478 5.25765C15.8716 5.26378 16.3903 5.36011 16.8814 5.54239C17.6055 5.82217 18.1779 6.39456 18.4576 7.11866C18.6404 7.61099 18.7367 8.13118 18.7424 8.65629C18.7831 9.53087 18.7912 9.79324 18.7912 12.0041C18.7912 14.2149 18.7912 14.4773 18.7424 15.3519C18.7358 15.8743 18.6395 16.3916 18.4576 16.8814C18.1779 17.6055 17.6055 18.1779 16.8814 18.4576C16.3891 18.6404 15.8689 18.7367 15.3437 18.7424C14.4692 18.7831 14.2088 18.7912 11.996 18.7912C9.78307 18.7912 9.52273 18.7912 8.64816 18.7424C8.12578 18.7358 7.60842 18.6395 7.11866 18.4576C6.39456 18.1779 5.82217 17.6055 5.54239 16.8814C5.35965 16.3891 5.26332 15.8689 5.25765 15.3437C5.21697 14.4692 5.20883 14.2068 5.20883 11.996C5.20883 9.7851 5.20883 9.52273 5.25765 8.64816C5.26425 8.12578 5.36056 7.60842 5.54239 7.11866C5.82217 6.39456 6.39456 5.82217 7.11866 5.54239C7.61099 5.35965 8.13118 5.26332 8.65629 5.25765ZM12 7.75527C14.3443 7.75527 16.2448 9.65571 16.2448 12C16.2448 14.3443 14.3443 16.2448 12 16.2448C9.65571 16.2448 7.75527 14.3443 7.75527 12C7.75527 9.65571 9.65571 7.75527 12 7.75527ZM13.9551 13.9551C13.4366 14.4736 12.7333 14.7646 12 14.7641C10.4735 14.7641 9.23595 13.5266 9.23595 12C9.23595 10.4735 10.4735 9.23595 12 9.23595C13.5266 9.23595 14.7641 10.4735 14.7641 12C14.7646 12.7333 14.4736 13.4366 13.9551 13.9551ZM17.398 7.59256C17.398 7.99319 17.1567 8.35436 16.7865 8.50767C16.4164 8.66098 15.9904 8.57624 15.7071 8.29296C15.4238 8.00967 15.3391 7.58364 15.4924 7.21351C15.6457 6.84338 16.0069 6.60205 16.4075 6.60205C16.9545 6.60205 17.398 7.04552 17.398 7.59256Z"
          fill="#C2C2C2"/>
</svg>
